HW/03GRUPO3/02verilog/LM32/rtl/wb_pwm/simulation/pwm_top_TB.vcd
$date
	Mon Mar 19 22:55:19 2018
$end
$version
	Icarus Verilog
$end
$timescale
	1s
$end
$scope module pwm_top_TB $end
$scope module uut $end
$var wire 32 ! addr [31:0] $end
$var wire 1 " clk $end
$var wire 32 # data_in [31:0] $end
$var wire 1 $ pwm0 $end
$var wire 1 % pwm1 $end
$var wire 1 & pwm2 $end
$var wire 1 ' pwm3 $end
$var wire 1 ( pwm4 $end
$var wire 1 ) pwm5 $end
$var wire 1 * pwm6 $end
$var wire 1 + pwm7 $end
$var wire 1 , rd $end
$var wire 1 - res $end
$var wire 1 . wr $end
$var reg 32 / d0 [31:0] $end
$var reg 32 0 d1 [31:0] $end
$var reg 32 1 d2 [31:0] $end
$var reg 32 2 d3 [31:0] $end
$var reg 32 3 d4 [31:0] $end
$var reg 32 4 d5 [31:0] $end
$var reg 32 5 d6 [31:0] $end
$var reg 32 6 d7 [31:0] $end
$var reg 32 7 data_ind [31:0] $end
$var reg 32 8 data_out [31:0] $end
$var reg 32 9 data_outd [31:0] $end
$var reg 32 : e0 [31:0] $end
$var reg 32 ; e1 [31:0] $end
$var reg 32 < e2 [31:0] $end
$var reg 32 = e3 [31:0] $end
$var reg 32 > e4 [31:0] $end
$var reg 32 ? e5 [31:0] $end
$var reg 32 @ e6 [31:0] $end
$var reg 32 A e7 [31:0] $end
$var reg 32 B t0 [31:0] $end
$var reg 32 C t1 [31:0] $end
$var reg 32 D t2 [31:0] $end
$var reg 32 E t3 [31:0] $end
$var reg 32 F t4 [31:0] $end
$var reg 32 G t5 [31:0] $end
$var reg 32 H t6 [31:0] $end
$var reg 32 I t7 [31:0] $end
$scope module servo0 $end
$var wire 1 " clk $end
$var wire 32 J d [31:0] $end
$var wire 1 - res $end
$var wire 32 K t [31:0] $end
$var reg 32 L cnt_d [31:0] $end
$var reg 32 M cnt_t [31:0] $end
$var reg 1 N pwm $end
$upscope $end
$scope module servo1 $end
$var wire 1 " clk $end
$var wire 32 O d [31:0] $end
$var wire 1 - res $end
$var wire 32 P t [31:0] $end
$var reg 32 Q cnt_d [31:0] $end
$var reg 32 R cnt_t [31:0] $end
$var reg 1 S pwm $end
$upscope $end
$scope module servo2 $end
$var wire 1 " clk $end
$var wire 32 T d [31:0] $end
$var wire 1 - res $end
$var wire 32 U t [31:0] $end
$var reg 32 V cnt_d [31:0] $end
$var reg 32 W cnt_t [31:0] $end
$var reg 1 X pwm $end
$upscope $end
$scope module servo3 $end
$var wire 1 " clk $end
$var wire 32 Y d [31:0] $end
$var wire 1 - res $end
$var wire 32 Z t [31:0] $end
$var reg 32 [ cnt_d [31:0] $end
$var reg 32 \ cnt_t [31:0] $end
$var reg 1 ] pwm $end
$upscope $end
$scope module servo4 $end
$var wire 1 " clk $end
$var wire 32 ^ d [31:0] $end
$var wire 1 - res $end
$var wire 32 _ t [31:0] $end
$var reg 32 ` cnt_d [31:0] $end
$var reg 32 a cnt_t [31:0] $end
$var reg 1 b pwm $end
$upscope $end
$scope module servo5 $end
$var wire 1 " clk $end
$var wire 32 c d [31:0] $end
$var wire 1 - res $end
$var wire 32 d t [31:0] $end
$var reg 32 e cnt_d [31:0] $end
$var reg 32 f cnt_t [31:0] $end
$var reg 1 g pwm $end
$upscope $end
$scope module servo6 $end
$var wire 1 " clk $end
$var wire 32 h d [31:0] $end
$var wire 1 - res $end
$var wire 32 i t [31:0] $end
$var reg 32 j cnt_d [31:0] $end
$var reg 32 k cnt_t [31:0] $end
$var reg 1 l pwm $end
$upscope $end
$scope module servo7 $end
$var wire 1 " clk $end
$var wire 32 m d [31:0] $end
$var wire 1 - res $end
$var wire 32 n t [31:0] $end
$var reg 32 o cnt_d [31:0] $end
$var reg 32 p cnt_t [31:0] $end
$var reg 1 q pwm $end
$upscope $end
$upscope $end
$upscope $end
$enddefinitions $end
#0
$dumpvars
0q
b0 p
b0 o
bx n
bx m
0l
b0 k
b0 j
bx i
bx h
0g
b0 f
b0 e
bx d
bx c
0b
b0 a
b0 `
bx _
bx ^
0]
b0 \
b0 [
bx Z
bx Y
0X
b0 W
b0 V
bx U
bx T
0S
b0 R
b0 Q
bx P
bx O
0N
b0 M
b0 L
bx K
bx J
bx I
bx H
bx G
bx F
bx E
bx D
bx C
bx B
bx A
bx @
bx ?
bx >
bx =
bx <
bx ;
bx :
bx 9
bx 8
b1010 7
bx 6
bx 5
bx 4
bx 3
bx 2
bx 1
bx 0
bx /
1.
1-
0,
0+
0*
0)
0(
0'
0&
0%
0$
b1010 #
1"
b100 !
$end
#1
0"
#2
b1010 9
b1010 /
b1010 J
1"
#3
0"
#4
1"
#5
0"
#6
1"
#7
0"
#8
1"
#9
0"
#10
1N
1$
b1 L
1"
0-
#11
0"
b1000 !
b11001000 #
#12
b10 L
b11001000 7
b1010 B
b1010 K
bx 9
1"
#13
0"
#14
b11 L
b11001000 9
b11001000 B
b11001000 K
1"
#15
0"
#16
b100 L
1"
#17
0"
#18
b101 L
1"
#19
0"
#20
b110 L
1"
#21
0"
#22
b111 L
1"
#23
0"
#24
b1000 L
1"
#25
0"
#26
b1001 L
1"
#27
0"
#28
b1010 L
1"
#29
0"
#30
0N
0$
b1 M
1"
#31
0"
#32
b10 M
1"
#33
0"
#34
b11 M
1"
#35
0"
#36
b100 M
1"
#37
0"
#38
b101 M
1"
#39
0"
#40
b110 M
1"
#41
0"
#42
b111 M
1"
#43
0"
#44
b1000 M
1"
#45
0"
#46
b1001 M
1"
#47
0"
#48
b1010 M
1"
#49
0"
#50
b1011 M
1"
#51
0"
#52
b1100 M
1"
#53
0"
#54
b1101 M
1"
#55
0"
#56
b1110 M
1"
#57
0"
#58
b1111 M
1"
#59
0"
#60
b10000 M
1"
#61
0"
#62
b10001 M
1"
#63
0"
#64
b10010 M
1"
#65
0"
#66
b10011 M
1"
#67
0"
#68
b10100 M
1"
#69
0"
#70
b10101 M
1"
#71
0"
#72
b10110 M
1"
#73
0"
#74
b10111 M
1"
#75
0"
#76
b11000 M
1"
#77
0"
#78
b11001 M
1"
#79
0"
#80
b11010 M
1"
#81
0"
#82
b11011 M
1"
#83
0"
#84
b11100 M
1"
#85
0"
#86
b11101 M
1"
#87
0"
#88
b11110 M
1"
#89
0"
#90
b11111 M
1"
#91
0"
#92
b100000 M
1"
#93
0"
#94
b100001 M
1"
#95
0"
#96
b100010 M
1"
#97
0"
#98
b100011 M
1"
#99
0"
#100
b100100 M
1"
#101
0"
#102
b100101 M
1"
#103
0"
#104
b100110 M
1"
#105
0"
#106
b100111 M
1"
#107
0"
#108
b101000 M
1"
#109
0"
#110
b101001 M
1"
#111
0"
b100 !
0.
1,
#112
1N
1$
b0 M
b1011 L
b11001000 8
b11001000 /
b11001000 J
b1010 9
1"
#113
0"
#114
b1100 L
b11001000 9
1"
#115
0"
#116
b1101 L
1"
#117
0"
#118
b1110 L
1"
#119
0"
#120
b1111 L
1"
#121
0"
#122
b10000 L
1"
#123
0"
#124
b10001 L
1"
#125
0"
#126
b10010 L
1"
#127
0"
#128
b10011 L
1"
#129
0"
#130
b10100 L
1"
#131
0"
#132
b10101 L
1"
#133
0"
#134
b10110 L
1"
#135
0"
#136
b10111 L
1"
#137
0"
#138
b11000 L
1"
#139
0"
#140
b11001 L
1"
#141
0"
#142
b11010 L
1"
#143
0"
#144
b11011 L
1"
#145
0"
#146
b11100 L
1"
#147
0"
#148
b11101 L
1"
#149
0"
#150
b11110 L
1"
#151
0"
#152
b11111 L
1"
#153
0"
#154
b100000 L
1"
#155
0"
#156
b100001 L
1"
#157
0"
#158
b100010 L
1"
#159
0"
#160
b100011 L
1"
#161
0"
#162
b100100 L
1"
#163
0"
#164
b100101 L
1"
#165
0"
#166
b100110 L
1"
#167
0"
#168
b100111 L
1"
#169
0"
#170
b101000 L
1"
#171
0"
#172
b101001 L
1"
#173
0"
#174
b101010 L
1"
#175
0"
#176
b101011 L
1"
#177
0"
#178
b101100 L
1"
#179
0"
#180
b101101 L
1"
#181
0"
#182
b101110 L
1"
#183
0"
#184
b101111 L
1"
#185
0"
#186
b110000 L
1"
#187
0"
#188
b110001 L
1"
#189
0"
#190
b110010 L
1"
#191
0"
#192
b110011 L
1"
#193
0"
#194
b110100 L
1"
#195
0"
#196
b110101 L
1"
#197
0"
#198
b110110 L
1"
#199
0"
#200
b110111 L
1"
#201
0"
#202
b111000 L
1"
#203
0"
#204
b111001 L
1"
#205
0"
#206
b111010 L
1"
#207
0"
#208
b111011 L
1"
#209
0"
#210
b111100 L
1"
#211
0"
#212
b111101 L
1"
#213
0"
#214
b111110 L
1"
#215
0"
#216
b111111 L
1"
#217
0"
#218
b1000000 L
1"
#219
0"
#220
b1000001 L
1"
#221
0"
#222
b1000010 L
1"
#223
0"
#224
b1000011 L
1"
#225
0"
#226
b1000100 L
1"
#227
0"
#228
b1000101 L
1"
#229
0"
#230
b1000110 L
1"
#231
0"
#232
b1000111 L
1"
#233
0"
#234
b1001000 L
1"
#235
0"
#236
b1001001 L
1"
#237
0"
#238
b1001010 L
1"
#239
0"
#240
b1001011 L
1"
#241
0"
#242
b1001100 L
1"
#243
0"
#244
b1001101 L
1"
#245
0"
#246
b1001110 L
1"
#247
0"
#248
b1001111 L
1"
#249
0"
#250
b1010000 L
1"
#251
0"
#252
b1010001 L
1"
#253
0"
#254
b1010010 L
1"
#255
0"
#256
b1010011 L
1"
#257
0"
#258
b1010100 L
1"
#259
0"
#260
b1010101 L
1"
#261
0"
#262
b1010110 L
1"
#263
0"
#264
b1010111 L
1"
#265
0"
#266
b1011000 L
1"
#267
0"
#268
b1011001 L
1"
#269
0"
#270
b1011010 L
1"
#271
0"
#272
b1011011 L
1"
#273
0"
#274
b1011100 L
1"
#275
0"
#276
b1011101 L
1"
#277
0"
#278
b1011110 L
1"
#279
0"
#280
b1011111 L
1"
#281
0"
#282
b1100000 L
1"
#283
0"
#284
b1100001 L
1"
#285
0"
#286
b1100010 L
1"
#287
0"
#288
b1100011 L
1"
#289
0"
#290
b1100100 L
1"
#291
0"
#292
b1100101 L
1"
#293
0"
#294
b1100110 L
1"
#295
0"
#296
b1100111 L
1"
#297
0"
#298
b1101000 L
1"
#299
0"
#300
b1101001 L
1"
#301
0"
#302
b1101010 L
1"
#303
0"
#304
b1101011 L
1"
#305
0"
#306
b1101100 L
1"
#307
0"
#308
b1101101 L
1"
#309
0"
#310
b1101110 L
1"
#311
0"
#312
b1101111 L
1"
#313
0"
#314
b1110000 L
1"
#315
0"
#316
b1110001 L
1"
#317
0"
#318
b1110010 L
1"
#319
0"
#320
b1110011 L
1"
#321
0"
#322
b1110100 L
1"
#323
0"
#324
b1110101 L
1"
#325
0"
#326
b1110110 L
1"
#327
0"
#328
b1110111 L
1"
#329
0"
#330
b1111000 L
1"
#331
0"
#332
b1111001 L
1"
#333
0"
#334
b1111010 L
1"
#335
0"
#336
b1111011 L
1"
#337
0"
#338
b1111100 L
1"
#339
0"
#340
b1111101 L
1"
#341
0"
#342
b1111110 L
1"
#343
0"
#344
b1111111 L
1"
#345
0"
#346
b10000000 L
1"
#347
0"
#348
b10000001 L
1"
#349
0"
#350
b10000010 L
1"
#351
0"
#352
b10000011 L
1"
#353
0"
#354
b10000100 L
1"
#355
0"
#356
b10000101 L
1"
#357
0"
#358
b10000110 L
1"
#359
0"
#360
b10000111 L
1"
#361
0"
#362
b10001000 L
1"
#363
0"
#364
b10001001 L
1"
#365
0"
#366
b10001010 L
1"
#367
0"
#368
b10001011 L
1"
#369
0"
#370
b10001100 L
1"
#371
0"
#372
b10001101 L
1"
#373
0"
#374
b10001110 L
1"
#375
0"
#376
b10001111 L
1"
#377
0"
#378
b10010000 L
1"
#379
0"
#380
b10010001 L
1"
#381
0"
#382
b10010010 L
1"
#383
0"
#384
b10010011 L
1"
#385
0"
#386
b10010100 L
1"
#387
0"
#388
b10010101 L
1"
#389
0"
#390
b10010110 L
1"
#391
0"
#392
b10010111 L
1"
#393
0"
#394
b10011000 L
1"
#395
0"
#396
b10011001 L
1"
#397
0"
#398
b10011010 L
1"
#399
0"
#400
b10011011 L
1"
#401
0"
#402
b10011100 L
1"
#403
0"
#404
b10011101 L
1"
#405
0"
#406
b10011110 L
1"
#407
0"
#408
b10011111 L
1"
#409
0"
#410
b10100000 L
1"
#411
0"
#412
b10100001 L
1"
#413
0"
#414
b10100010 L
1"
#415
0"
#416
b10100011 L
1"
#417
0"
#418
b10100100 L
1"
#419
0"
#420
b10100101 L
1"
#421
0"
#422
b10100110 L
1"
#423
0"
#424
b10100111 L
1"
#425
0"
#426
b10101000 L
1"
#427
0"
#428
b10101001 L
1"
#429
0"
#430
b10101010 L
1"
#431
0"
#432
b10101011 L
1"
#433
0"
#434
b10101100 L
1"
#435
0"
#436
b10101101 L
1"
#437
0"
#438
b10101110 L
1"
#439
0"
#440
b10101111 L
1"
#441
0"
#442
b10110000 L
1"
#443
0"
#444
b10110001 L
1"
#445
0"
#446
b10110010 L
1"
#447
0"
#448
b10110011 L
1"
#449
0"
#450
b10110100 L
1"
#451
0"
#452
b10110101 L
1"
#453
0"
#454
b10110110 L
1"
#455
0"
#456
b10110111 L
1"
#457
0"
#458
b10111000 L
1"
#459
0"
#460
b10111001 L
1"
#461
0"
#462
b10111010 L
1"
#463
0"
#464
b10111011 L
1"
#465
0"
#466
b10111100 L
1"
#467
0"
#468
b10111101 L
1"
#469
0"
#470
b10111110 L
1"
#471
0"
#472
b10111111 L
1"
#473
0"
#474
b11000000 L
1"
#475
0"
#476
b11000001 L
1"
#477
0"
#478
b11000010 L
1"
#479
0"
#480
b11000011 L
1"
#481
0"
#482
b11000100 L
1"
#483
0"
#484
b11000101 L
1"
#485
0"
#486
b11000110 L
1"
#487
0"
#488
b11000111 L
1"
#489
0"
#490
b11001000 L
1"
#491
0"
#492
b0 L
1"
#493
0"
#494
b1 L
1"
#495
0"
#496
b10 L
1"
#497
0"
#498
b11 L
1"
#499
0"
#500
b100 L
1"
#501
0"
#502
b101 L
1"
#503
0"
#504
b110 L
1"
#505
0"
#506
b111 L
1"
#507
0"
#508
b1000 L
1"
#509
0"
#510
b1001 L
1"
#511
0"
#512
b1010 L
1"
#513
0"
#514
b1011 L
1"
#515
0"
#516
b1100 L
1"
#517
0"
#518
b1101 L
1"
#519
0"
#520
b1110 L
1"
#521
0"
#522
b1111 L
1"
#523
0"
#524
b10000 L
1"
#525
0"
#526
b10001 L
1"
#527
0"
#528
b10010 L
1"
#529
0"
#530
b10011 L
1"
#531
0"
#532
b10100 L
1"
#533
0"
#534
b10101 L
1"
#535
0"
#536
b10110 L
1"
#537
0"
#538
b10111 L
1"
#539
0"
#540
b11000 L
1"
#541
0"
#542
b11001 L
1"
#543
0"
#544
b11010 L
1"
#545
0"
#546
b11011 L
1"
#547
0"
#548
b11100 L
1"
#549
0"
#550
b11101 L
1"
#551
0"
#552
b11110 L
1"
#553
0"
#554
b11111 L
1"
#555
0"
#556
b100000 L
1"
#557
0"
#558
b100001 L
1"
#559
0"
#560
b100010 L
1"
#561
0"
#562
b100011 L
1"
#563
0"
#564
b100100 L
1"
#565
0"
#566
b100101 L
1"
#567
0"
#568
b100110 L
1"
#569
0"
#570
b100111 L
1"
#571
0"
#572
b101000 L
1"
#573
0"
#574
b101001 L
1"
#575
0"
#576
b101010 L
1"
#577
0"
#578
b101011 L
1"
#579
0"
#580
b101100 L
1"
#581
0"
#582
b101101 L
1"
#583
0"
#584
b101110 L
1"
#585
0"
#586
b101111 L
1"
#587
0"
#588
b110000 L
1"
#589
0"
#590
b110001 L
1"
#591
0"
#592
b110010 L
1"
#593
0"
#594
b110011 L
1"
#595
0"
#596
b110100 L
1"
#597
0"
#598
b110101 L
1"
#599
0"
#600
b110110 L
1"
#601
0"
#602
b110111 L
1"
#603
0"
#604
b111000 L
1"
#605
0"
#606
b111001 L
1"
#607
0"
#608
b111010 L
1"
#609
0"
#610
b111011 L
1"
#611
0"
#612
b111100 L
1"
#613
0"
#614
b111101 L
1"
#615
0"
#616
b111110 L
1"
#617
0"
#618
b111111 L
1"
#619
0"
#620
b1000000 L
1"
#621
0"
#622
b1000001 L
1"
#623
0"
#624
b1000010 L
1"
#625
0"
#626
b1000011 L
1"
#627
0"
#628
b1000100 L
1"
#629
0"
#630
b1000101 L
1"
#631
0"
#632
b1000110 L
1"
#633
0"
#634
b1000111 L
1"
#635
0"
#636
b1001000 L
1"
#637
0"
#638
b1001001 L
1"
#639
0"
#640
b1001010 L
1"
#641
0"
#642
b1001011 L
1"
#643
0"
#644
b1001100 L
1"
#645
0"
#646
b1001101 L
1"
#647
0"
#648
b1001110 L
1"
#649
0"
#650
b1001111 L
1"
#651
0"
#652
b1010000 L
1"
#653
0"
#654
b1010001 L
1"
#655
0"
#656
b1010010 L
1"
#657
0"
#658
b1010011 L
1"
#659
0"
#660
b1010100 L
1"
#661
0"
#662
b1010101 L
1"
#663
0"
#664
b1010110 L
1"
#665
0"
#666
b1010111 L
1"
#667
0"
#668
b1011000 L
1"
#669
0"
#670
b1011001 L
1"
#671
0"
#672
b1011010 L
1"
#673
0"
#674
b1011011 L
1"
#675
0"
#676
b1011100 L
1"
#677
0"
#678
b1011101 L
1"
#679
0"
#680
b1011110 L
1"
#681
0"
#682
b1011111 L
1"
#683
0"
#684
b1100000 L
1"
#685
0"
#686
b1100001 L
1"
#687
0"
#688
b1100010 L
1"
#689
0"
#690
b1100011 L
1"
#691
0"
#692
b1100100 L
1"
#693
0"
#694
b1100101 L
1"
#695
0"
#696
b1100110 L
1"
#697
0"
#698
b1100111 L
1"
#699
0"
#700
b1101000 L
1"
#701
0"
#702
b1101001 L
1"
#703
0"
#704
b1101010 L
1"
#705
0"
#706
b1101011 L
1"
#707
0"
#708
b1101100 L
1"
#709
0"
#710
b1101101 L
1"
#711
0"
#712
b1101110 L
1"
#713
0"
#714
b1101111 L
1"
#715
0"
#716
b1110000 L
1"
#717
0"
#718
b1110001 L
1"
#719
0"
#720
b1110010 L
1"
#721
0"
#722
b1110011 L
1"
#723
0"
#724
b1110100 L
1"
#725
0"
#726
b1110101 L
1"
#727
0"
#728
b1110110 L
1"
#729
0"
#730
b1110111 L
1"
#731
0"
#732
b1111000 L
1"
#733
0"
#734
b1111001 L
1"
#735
0"
#736
b1111010 L
1"
#737
0"
#738
b1111011 L
1"
#739
0"
#740
b1111100 L
1"
#741
0"
#742
b1111101 L
1"
#743
0"
#744
b1111110 L
1"
#745
0"
#746
b1111111 L
1"
#747
0"
#748
b10000000 L
1"
#749
0"
#750
b10000001 L
1"
#751
0"
#752
b10000010 L
1"
#753
0"
#754
b10000011 L
1"
#755
0"
#756
b10000100 L
1"
#757
0"
#758
b10000101 L
1"
#759
0"
#760
b10000110 L
1"
#761
0"
#762
b10000111 L
1"
#763
0"
#764
b10001000 L
1"
#765
0"
#766
b10001001 L
1"
#767
0"
#768
b10001010 L
1"
#769
0"
#770
b10001011 L
1"
#771
0"
#772
b10001100 L
1"
#773
0"
#774
b10001101 L
1"
#775
0"
#776
b10001110 L
1"
#777
0"
#778
b10001111 L
1"
#779
0"
#780
b10010000 L
1"
#781
0"
#782
b10010001 L
1"
#783
0"
#784
b10010010 L
1"
#785
0"
#786
b10010011 L
1"
#787
0"
#788
b10010100 L
1"
#789
0"
#790
b10010101 L
1"
#791
0"
#792
b10010110 L
1"
#793
0"
#794
b10010111 L
1"
#795
0"
#796
b10011000 L
1"
#797
0"
#798
b10011001 L
1"
#799
0"
#800
b10011010 L
1"
#801
0"
#802
b10011011 L
1"
#803
0"
#804
b10011100 L
1"
#805
0"
#806
b10011101 L
1"
#807
0"
#808
b10011110 L
1"
#809
0"
#810
b10011111 L
1"
#811
0"
#812
b10100000 L
1"
#813
0"
#814
b10100001 L
1"
#815
0"
#816
b10100010 L
1"
#817
0"
#818
b10100011 L
1"
#819
0"
#820
b10100100 L
1"
#821
0"
#822
b10100101 L
1"
#823
0"
#824
b10100110 L
1"
#825
0"
#826
b10100111 L
1"
#827
0"
#828
b10101000 L
1"
#829
0"
#830
b10101001 L
1"
#831
0"
#832
b10101010 L
1"
#833
0"
#834
b10101011 L
1"
#835
0"
#836
b10101100 L
1"
#837
0"
#838
b10101101 L
1"
#839
0"
#840
b10101110 L
1"
#841
0"
#842
b10101111 L
1"
#843
0"
#844
b10110000 L
1"
#845
0"
#846
b10110001 L
1"
#847
0"
#848
b10110010 L
1"
#849
0"
#850
b10110011 L
1"
#851
0"
#852
b10110100 L
1"
#853
0"
#854
b10110101 L
1"
#855
0"
#856
b10110110 L
1"
#857
0"
#858
b10110111 L
1"
#859
0"
#860
b10111000 L
1"
#861
0"
#862
b10111001 L
1"
#863
0"
#864
b10111010 L
1"
#865
0"
#866
b10111011 L
1"
#867
0"
#868
b10111100 L
1"
#869
0"
#870
b10111101 L
1"
#871
0"
#872
b10111110 L
1"
#873
0"
#874
b10111111 L
1"
#875
0"
#876
b11000000 L
1"
#877
0"
#878
b11000001 L
1"
#879
0"
#880
b11000010 L
1"
#881
0"
#882
b11000011 L
1"
#883
0"
#884
b11000100 L
1"
#885
0"
#886
b11000101 L
1"
#887
0"
#888
b11000110 L
1"
#889
0"
#890
b11000111 L
1"
#891
0"
#892
b11001000 L
1"
#893
0"
#894
b0 L
1"
#895
0"
#896
b1 L
1"
#897
0"
#898
b10 L
1"
#899
0"
#900
b11 L
1"
#901
0"
#902
b100 L
1"
#903
0"
#904
b101 L
1"
#905
0"
#906
b110 L
1"
#907
0"
#908
b111 L
1"
#909
0"
#910
b1000 L
1"
#911
0"
#912
b1001 L
1"
#913
0"
#914
b1010 L
1"
#915
0"
#916
b1011 L
1"
#917
0"
#918
b1100 L
1"
#919
0"
#920
b1101 L
1"
#921
0"
#922
b1110 L
1"
#923
0"
#924
b1111 L
1"
#925
0"
#926
b10000 L
1"
#927
0"
#928
b10001 L
1"
#929
0"
#930
b10010 L
1"
#931
0"
#932
b10011 L
1"
#933
0"
#934
b10100 L
1"
#935
0"
#936
b10101 L
1"
#937
0"
#938
b10110 L
1"
#939
0"
#940
b10111 L
1"
#941
0"
#942
b11000 L
1"
#943
0"
#944
b11001 L
1"
#945
0"
#946
b11010 L
1"
#947
0"
#948
b11011 L
1"
#949
0"
#950
b11100 L
1"
#951
0"
#952
b11101 L
1"
#953
0"
#954
b11110 L
1"
#955
0"
#956
b11111 L
1"
#957
0"
#958
b100000 L
1"
#959
0"
#960
b100001 L
1"
#961
0"
#962
b100010 L
1"
#963
0"
#964
b100011 L
1"
#965
0"
#966
b100100 L
1"
#967
0"
#968
b100101 L
1"
#969
0"
#970
b100110 L
1"
#971
0"
#972
b100111 L
1"
#973
0"
#974
b101000 L
1"
#975
0"
#976
b101001 L
1"
#977
0"
#978
b101010 L
1"
#979
0"
#980
b101011 L
1"
#981
0"
#982
b101100 L
1"
#983
0"
#984
b101101 L
1"
#985
0"
#986
b101110 L
1"
#987
0"
#988
b101111 L
1"
#989
0"
#990
b110000 L
1"
#991
0"
#992
b110001 L
1"
#993
0"
#994
b110010 L
1"
#995
0"
#996
b110011 L
1"
#997
0"
#998
b110100 L
1"
#999
0"
#1000
b110101 L
1"
#1001
0"
#1002
b110110 L
1"
#1003
0"
#1004
b110111 L
1"
#1005
0"
#1006
b111000 L
1"
#1007
0"
#1008
b111001 L
1"
#1009
0"
#1010
b111010 L
1"
#1011
0"
#1012
b111011 L
1"
#1013
0"
#1014
b111100 L
1"
#1015
0"
#1016
b111101 L
1"
#1017
0"
#1018
b111110 L
1"
#1019
0"
#1020
b111111 L
1"
#1021
0"
#1022
b1000000 L
1"
#1023
0"
#1024
b1000001 L
1"
#1025
0"
#1026
b1000010 L
1"
#1027
0"
#1028
b1000011 L
1"
#1029
0"
#1030
b1000100 L
1"
#1031
0"
#1032
b1000101 L
1"
#1033
0"
#1034
b1000110 L
1"
#1035
0"
#1036
b1000111 L
1"
#1037
0"
#1038
b1001000 L
1"
#1039
0"
#1040
b1001001 L
1"
#1041
0"
#1042
b1001010 L
1"
#1043
0"
#1044
b1001011 L
1"
#1045
0"
#1046
b1001100 L
1"
#1047
0"
#1048
b1001101 L
1"
#1049
0"
#1050
b1001110 L
1"
#1051
0"
#1052
b1001111 L
1"
#1053
0"
#1054
b1010000 L
1"
#1055
0"
#1056
b1010001 L
1"
#1057
0"
#1058
b1010010 L
1"
#1059
0"
#1060
b1010011 L
1"
#1061
0"
#1062
b1010100 L
1"
#1063
0"
#1064
b1010101 L
1"
#1065
0"
#1066
b1010110 L
1"
#1067
0"
#1068
b1010111 L
1"
#1069
0"
#1070
b1011000 L
1"
#1071
0"
#1072
b1011001 L
1"
#1073
0"
#1074
b1011010 L
1"
#1075
0"
#1076
b1011011 L
1"
#1077
0"
#1078
b1011100 L
1"
#1079
0"
#1080
b1011101 L
1"
#1081
0"
#1082
b1011110 L
1"
#1083
0"
#1084
b1011111 L
1"
#1085
0"
#1086
b1100000 L
1"
#1087
0"
#1088
b1100001 L
1"
#1089
0"
#1090
b1100010 L
1"
#1091
0"
#1092
b1100011 L
1"
#1093
0"
#1094
b1100100 L
1"
#1095
0"
#1096
b1100101 L
1"
#1097
0"
#1098
b1100110 L
1"
#1099
0"
#1100
b1100111 L
1"
#1101
0"
#1102
b1101000 L
1"
#1103
0"
#1104
b1101001 L
1"
#1105
0"
#1106
b1101010 L
1"
#1107
0"
#1108
b1101011 L
1"
#1109
0"
#1110
b1101100 L
1"
#1111
0"
#1112
b1101101 L
1"
#1113
0"
#1114
b1101110 L
1"
#1115
0"
#1116
b1101111 L
1"
#1117
0"
#1118
b1110000 L
1"
#1119
0"
#1120
b1110001 L
1"
#1121
0"
#1122
b1110010 L
1"
#1123
0"
#1124
b1110011 L
1"
#1125
0"
#1126
b1110100 L
1"
#1127
0"
#1128
b1110101 L
1"
#1129
0"
#1130
b1110110 L
1"
#1131
0"
#1132
b1110111 L
1"
#1133
0"
#1134
b1111000 L
1"
#1135
0"
#1136
b1111001 L
1"
#1137
0"
#1138
b1111010 L
1"
#1139
0"
#1140
b1111011 L
1"
#1141
0"
#1142
b1111100 L
1"
#1143
0"
#1144
b1111101 L
1"
#1145
0"
#1146
b1111110 L
1"
#1147
0"
#1148
b1111111 L
1"
#1149
0"
#1150
b10000000 L
1"
#1151
0"
#1152
b10000001 L
1"
#1153
0"
#1154
b10000010 L
1"
#1155
0"
#1156
b10000011 L
1"
#1157
0"
#1158
b10000100 L
1"
#1159
0"
#1160
b10000101 L
1"
#1161
0"
#1162
b10000110 L
1"
#1163
0"
#1164
b10000111 L
1"
#1165
0"
#1166
b10001000 L
1"
#1167
0"
#1168
b10001001 L
1"
#1169
0"
#1170
b10001010 L
1"
#1171
0"
#1172
b10001011 L
1"
#1173
0"
#1174
b10001100 L
1"
#1175
0"
#1176
b10001101 L
1"
#1177
0"
#1178
b10001110 L
1"
#1179
0"
#1180
b10001111 L
1"
#1181
0"
#1182
b10010000 L
1"
#1183
0"
#1184
b10010001 L
1"
#1185
0"
#1186
b10010010 L
1"
#1187
0"
#1188
b10010011 L
1"
#1189
0"
#1190
b10010100 L
1"
#1191
0"
#1192
b10010101 L
1"
#1193
0"
#1194
b10010110 L
1"
#1195
0"
#1196
b10010111 L
1"
#1197
0"
#1198
b10011000 L
1"
#1199
0"
#1200
b10011001 L
1"
#1201
0"
#1202
b10011010 L
1"
#1203
0"
#1204
b10011011 L
1"
#1205
0"
#1206
b10011100 L
1"
#1207
0"
#1208
b10011101 L
1"
#1209
0"
#1210
b10011110 L
1"
#1211
0"
#1212
b10011111 L
1"
#1213
0"
#1214
b10100000 L
1"
#1215
0"
#1216
b10100001 L
1"
#1217
0"
#1218
b10100010 L
1"
#1219
0"
#1220
b10100011 L
1"
#1221
0"
#1222
b10100100 L
1"
#1223
0"
#1224
b10100101 L
1"
#1225
0"
#1226
b10100110 L
1"
#1227
0"
#1228
b10100111 L
1"
#1229
0"
#1230
b10101000 L
1"
#1231
0"
#1232
b10101001 L
1"
#1233
0"
#1234
b10101010 L
1"
#1235
0"
#1236
b10101011 L
1"
#1237
0"
#1238
b10101100 L
1"
#1239
0"
#1240
b10101101 L
1"
#1241
0"
#1242
b10101110 L
1"
#1243
0"
#1244
b10101111 L
1"
#1245
0"
#1246
b10110000 L
1"
#1247
0"
#1248
b10110001 L
1"
#1249
0"
#1250
b10110010 L
1"
#1251
0"
#1252
b10110011 L
1"
#1253
0"
#1254
b10110100 L
1"
#1255
0"
#1256
b10110101 L
1"
#1257
0"
#1258
b10110110 L
1"
#1259
0"
#1260
b10110111 L
1"
#1261
0"
#1262
b10111000 L
1"
#1263
0"
#1264
b10111001 L
1"
#1265
0"
#1266
b10111010 L
1"
#1267
0"
#1268
b10111011 L
1"
#1269
0"
#1270
b10111100 L
1"
#1271
0"
#1272
b10111101 L
1"
#1273
0"
#1274
b10111110 L
1"
#1275
0"
#1276
b10111111 L
1"
#1277
0"
#1278
b11000000 L
1"
#1279
0"
#1280
b11000001 L
1"
#1281
0"
#1282
b11000010 L
1"
#1283
0"
#1284
b11000011 L
1"
#1285
0"
#1286
b11000100 L
1"
#1287
0"
#1288
b11000101 L
1"
#1289
0"
#1290
b11000110 L
1"
#1291
0"
#1292
b11000111 L
1"
#1293
0"
#1294
b11001000 L
1"
#1295
0"
#1296
b0 L
1"
#1297
0"
#1298
b1 L
1"
#1299
0"
#1300
b10 L
1"
#1301
0"
#1302
b11 L
1"
#1303
0"
#1304
b100 L
1"
#1305
0"
#1306
b101 L
1"
#1307
0"
#1308
b110 L
1"
#1309
0"
#1310
b111 L
1"
#1311
0"
#1312
b1000 L
1"
#1313
0"
#1314
b1001 L
1"
#1315
0"
#1316
b1010 L
1"
#1317
0"
